[
  {
    "uuid": "43368a90-d5dc-44ec-971c-52b24ea618cc",
    "name": "JakeyTheDev",
    "level": 4,
    "bypassesPlayerLimit": false
  },
  {
    "uuid": "d5eaa4a0-4d87-4280-9768-39440e3df62d",
    "name": "ThatAbstractWolf",
    "level": 4,
    "bypassesPlayerLimit": false
  },
  {
    "uuid": "6e8b432d-6036-446e-88e5-17e34c857e81",
    "name": "TheAbstractWolf",
    "level": 4,
    "bypassesPlayerLimit": false
  },
  {
    "uuid": "c5a55ef3-d4f6-338f-8b87-3274ef3711d6",
    "name": "atAbstractWolf",
    "level": 4,
    "bypassesPlayerLimit": false
  },
  {
    "uuid": "d6e486c1-2a92-34c8-a2f8-aa4de418f44b",
    "name": "JakeyTheDev",
    "level": 4,
    "bypassesPlayerLimit": false
  }
]